{
  "type": "service_account",
  "project_id": "tracking-253213",
  "private_key_id": "7cb86f6d60f9f9582c07ddfac9afea37a26b5154",
  "private_key": "-----BEGIN PRIVATE KEY-----\nMIIEvAIBADANBgkqhkiG9w0BAQEFAASCBKYwggSiAgEAAoIBAQClsQYIgLprOUdR\nK/zmHEOsJ2b+Ta86sC4dJ5SM5goRhHnw8kC8PCB+pumhTAkFM/cmiG8zyaZC5gr/\nFgO5iNbIu/DeRbcny2fA7LYf/l/ClNwhHQlJYXwgMQ9FoqTtj3aZXlAeKLCsVRlj\nQay62P20gH4J0KNdLF0SGppynsrQgGwHbUh9DY0cY5mwlLHTMnfqPO+bgIuWLt0z\n/apFX4wwKRhtqfhS5s4b4ZX8DHECYg4Ue+XVlRS0QQmwz8lhThEO1sLW0KDSyxmi\neVJ7D2u1uztETHadd3cEEWU7+TKilIm8fn8m8EsP4vuVp3sPRfHKRwKvboELICB2\nsevAturDAgMBAAECggEAKuHdd17loHGTGRmC2wVOqGQMPl3Zr51AWhBP3IV+7pi0\nPJ1eDrmbCVxmk/XLUdroqMLf0O3sB11lVC6c6SxWtl4Z0VUGuZhlsmMxIaeinggL\nztAmgqTlzKkV1EZrXAZowfnMT3nle7yMlQk+zJ7zTn+A30ZtuWQNdG2JMogRYpOm\nv9Fp2bZoy394Yrn3W3KV1/af/Hdm/UdqFqhx2Q7LC5n3FvU/vmYn04KCdYd27hmq\nRTv4cpjiBlE/s1fO8eVdFFuO5t6prlgjDunnQTOtBaW9jns3pRRmHE+OrszTKRbU\n2BLhuUKffhpq2HiPh6GZbMaLMHwtRNpnGRfCHCXHzQKBgQDoW0aPg/VIAGko9Nu6\nVWkMRMZb1LoN+rN7peyTnbcK2lFx+FOb1RpXgdLT4emDxfxdVCOnSlUz93OHEplQ\ngl00I1nFz2LokqRdzwsn8ncEH6iWYKLI0fI22eSqRWvgH2NH208kUgOi2KSkqzEr\nQN3pK1Cn3kATdMEL3RfxYpuMfwKBgQC2jSugD2QLVazCKDaZhByUHCXDNHFb9lnQ\n9JAWp6YHRbFVcLTLkO47ASsBV1jmYAuj1VAThTMlJL6B7B9ruMYHhiq0eHGsX05W\n1ny8ZAqG6hd0qADqH/M7Ad+1+C6ViMT3TnhTMzhlw/MMgGHkEctxYiVBvVnmTu8C\nEsr9TftPvQKBgCXDJ82NOaDRCEYyvT8kQGVRDBfCk9ZPxzmyNqeq+yOVZaUrIZNy\n58wO+k+bKJNU6vXUBdNbXkuKzMjH+gi+lx0xHZbrZHy90F66lmqQmk0eRAzkebA/\nhqjpcqNFkwmisETuXIdfmN2vbdqhQ+VurmIFux79HNbMo88kyI5fYz5LAoGAYG4k\nHFHk/CPOtWU+qktiOU7BF+OM+hIhEcMOlhkLGA5VhZeauWmenmaYjAXS/SbBH1Mg\nEJ+tC7LkO4c6ddHOMc1Ko7h3+6EApdh5XZ7O/MONjl7s1L/54TK1NM+b8/uiaCz4\nXKLS6NbgfbsXer13pTY+DgLzCTirAoJg3fuihFUCgYAcVM0mHM/xnF5z2RAx95F5\nFZ8fDSH29zBMMrKYFt7Ugji+wonZ5AUnXZYLgoI0Jf08tN+/n8pFE6N7tA28UHNM\np6WSPPDHJiJ5r/O2AZApH6IIXwfT5TKlKuQ/QBcPn0B9n6uYWQcyvlH+HrvbkS5s\ntNSSP2xx1wFYllyXZZxqNg==\n-----END PRIVATE KEY-----\n",
  "client_email": "tracking@tracking-253213.iam.gserviceaccount.com",
  "client_id": "106409154547690042606",
  "auth_uri": "https://accounts.google.com/o/oauth2/auth",
  "token_uri": "https://oauth2.googleapis.com/token",
  "auth_provider_x509_cert_url": "https://www.googleapis.com/oauth2/v1/certs",
  "client_x509_cert_url": "https://www.googleapis.com/robot/v1/metadata/x509/tracking%40tracking-253213.iam.gserviceaccount.com"
}
